^C:\USERS\HANNAN\ONEDRIVE\CODE\SMARTSTRINGS\SMARTSTRINGS\SOURCE.CPP
C:\USERS\HANNAN\ONEDRIVE\CODE\SMARTSTRINGS\SMARTSTRINGS\DEBUG\VC140.PDB
C:\USERS\HANNAN\ONEDRIVE\CODE\SMARTSTRINGS\SMARTSTRINGS\DEBUG\VC140.IDB
C:\USERS\HANNAN\ONEDRIVE\CODE\SMARTSTRINGS\SMARTSTRINGS\DEBUG\SOURCE.OBJ
